{
  "name": "ZCR_Automation",
  "description": "Process the credit memo requests for Belgium and Netherlands",
  "main": "Main.xaml",
  "dependencies": {
    "Microsoft.Activities.Extensions": "[2.0.6.9]",
    "UiPath.DocumentUnderstanding.ML.Activities": "[1.5.2]",
    "UiPath.Excel.Activities": "[2.9.3]",
    "UiPath.IntelligentOCR.Activities": "[4.10.2]",
    "UiPath.Mail.Activities": "[1.9.3]",
    "UiPath.OmniPage.Activities": "[1.7.0]",
    "UiPath.PDF.Activities": "[3.3.0]",
    "UiPath.System.Activities": "[20.10.1]",
    "UiPath.UIAutomation.Activities": "[20.10.8]",
    "UiPath.Vision": "[2.2.0]"
  },
  "webServices": [],
  "entitiesStores": [],
  "schemaVersion": "4.0",
  "studioVersion": "19.10.4.0",
  "projectVersion": "1.0.0",
  "runtimeOptions": {
    "autoDispose": false,
    "isPausable": true,
    "requiresUserInteraction": true,
    "supportsPersistence": false,
    "excludedLoggedData": [
      "Private:*",
      "*password*"
    ],
    "executionType": "Workflow",
    "readyForPiP": false,
    "startsInPiP": false
  },
  "designOptions": {
    "projectProfile": "Developement",
    "outputType": "Process",
    "libraryOptions": {
      "includeOriginalXaml": false,
      "privateWorkflows": []
    },
    "processOptions": {
      "ignoredFiles": []
    },
    "fileInfoCollection": [],
    "modernBehavior": false
  },
  "expressionLanguage": "VisualBasic",
  "entryPoints": [
    {
      "filePath": "Main.xaml",
      "uniqueId": "61bf0c32-3a61-4b3e-b460-99ae3c80b9bd",
      "input": [],
      "output": []
    }
  ],
  "isTemplate": false,
  "templateProjectData": {},
  "publishData": {}
}