MEDIA MARKT ARENA AMSTERDAM ARENA BOULEVARD 123 - 125 1101 DM AMSTERDAM Tel.: 020-5641616 Fax: 020-5641686 BTW-nummer: NL 8079 BTW-nr: NL809818061601

Bedrijf INGRAM MICRO B.V.

PAPENDORPSEWEG 95

3528 BJ UTRECHT NL - NEDERLAND

BTW-nr: NL008950441601

Media Markt

DATUM 24-6-2020

VITY0 * TV* GM * IIFORY/MC* * FOTOGR... CO

ILVECORINICATION * EIMCTWOOOREITIC03

Vestiging Uw rekening bij ons

Bewerkt door

Toekenning Toekenningsdatum

N003 3100229 JMARTELS

1591058 24-6-2020

BELASTING Nr.: 132224

39253303

Pos Art.nr. Type

1 1197970 UNIVERSEEL KOOPO EAN :2000011979706

Referentiedatum Referentiefactuur

24-6-2020 1591058

Btw-%

21,00

Netto 312,21

Onderstaand verschil zal bij de volgende betaling

verrekend worden.

GI-aantal Fout aantal

1

0

BTW 21,00%

Totaal

Fout aantal Natura Fact.IK

0 312,21

BTW 65,56

377,77

Ik-verschil

Totaal

312,21

312,21

Bruto 377,77 EUR

EUR

Media Markt Arena B.V. 1101 DM AMSTERDAM KVK-nummer: 34157629 Register gerecht: Amsterdam (NL)

Pag. 1

Bank:

Banknaam ING BANK N.V.

IBAN BIC

Directie: Edward van Lith, Arnold Sporrel

NL28INGB0659234602 INGBNL2A