MEDIA MARKT RIJSWIJK PRINS WILLEM ALEXANDER PROM 69 2284 DJ RIJSWIJK Tel.: 070-3728200 Fax: 070-3728289 BTW-nummer: NL 8098 BTW-nr: NL809817883B01

MEDIA MARKT- SATURN

DATUM 29-7-2020

i

I

I

Bedrjf               Vestiging            N005     
NGRAM MCRO B.V.      Uw rekenng bij ons   3100229  
PAPENDORPSEVVEG 95   Bewerkt door         NL-ALPR  
3528 BJ UTRECHT      Toekennng            78115245 
NL - NEDERLAND       Toekennngsdatum      29-7-2020

BTW-nr: NL008950441B01

!

! I

i

i i

Belastingskopie Nr.: 60104 FDRVV40115380

Pos Art.nr. Type 1 1656557 IP 317IML 15-10210U 8 Lev. bestelnr.: 4822205 EAN :0194778969086 THUISKOPIEHEFFING EAN :0194778969086

Referentiedatum Referentiefactuur

29-7-2020 78115245

THUISKOPIEHEFFING

Btw-%

21,00

21,00

Netto 549,19

2,60

Onderstaand verschil zal bij de volende betalin

g

verrekend worden.

Fout aantal GI-aantal Fout aantal Natura Fact.IK

0 549,19

BTW 21,00%

21,00%

Totaal

2,60

BTW 115,33

0,55

667,67

g

Ik-verschil

549,19

2,60

Bruto 664,52

3,15

Totaal

549,19

2,60

EUR

EUR

EUR

Media Markt Rijswijk B.V. 2284 DJ RIJSWIJK KVK-nummer: 27199715 Register gerecht: Den Haag (NL)

Pag 1

Bank:

Banknaam ING BANK N.V.

IBAN BIC

NL67INGB0679654534 INGBNL2A

Directie: Arnold Sporrel