MEDIA MARKT EDE BROUWERSTRAAT 21 B 6711 AS EDE (GLD) Tel.: 0318-477400 Fax: 0318-477489 BTW-nummer: NL 8079 BTW-nr: NL814464889B01

Alledia Markt

DATUM 24-7-2020

Bedrijf INGRAM MICRO B.V.

PAPENDORPSEWEG 95

3528 BJ UTRECHT NL - NEDERLAND

BTW-nr: NL008950441601

Vestiging Uw rekening bij ons

Bewerkt door

N020 3100229 WOLBERTS

Toekenning Toekenningsdatum

190282202 24-7-2020

BELASTING Nr.: 62311

Belasting i.v.m. te lang openstaande reparatie FED38351725.

Pos Art.nr Type 1 1197970

Referentiedatum Referentiefactuur Btw-%

24-7-2020

UNIVERSEEL KOOPO 190282202 21,00 EAN :2000011979706

Netto 660,33

Onderstaand verschil zal bij de volgende betaling

verrekend worden.

Fout aantal GI-aantal Fout aantal Natura Fact.IK

1

0

0 660,33

BTW 21,00%

Totaal

BTW 138,67

799,00

Ik-verschil

660,33

Bruto 799,00

Totaal

660,33

EUR

EUR

Media Markt Ede B V 6711 AS EDE (GLD) KVK-nummer: 09151,183 Handeisregisterboek- N020 Register gerecht Centraal Gelderland

Pag 1

Bank:

Banknaam ING BANK N V

IBAN BIC

NLOBINGB0651959450 INGBNL2A

Directie: Edwin Koekkoek, Pim Kramer