MEDIA MARKT ARNHEM VELPERPLEIN 12 6811 AG ARNHEM Tel.: 026 3520800 Fax: 026 3520889 BTW-nummer: NL 8079 BTW-nr: NL815194274B01

Media0,44arkt

DATUM 30.01.2020

Bedrijf              Vestiging             N022      
INGRAM MICRO B.V.    Uw rekening bij ons   3100229   
PAPENDORPSE WEG 95   Bewerkt door          JAGMOHANW 
3528 BJ UTRECHT      Toekenning            1325904   
NL NEDERLAND         Toekenningsdatum      30.01.2020

-

BTW-nr: NL008950441601

BELASTING Nr.: 63654 SNR Hierbij belasten wij u voor deze service reparatie met AH36959020.

Pos Art.nr. Type

1 1197970 UNIVERSEEL KOOPO EAN :2000011979706

Referentiedatum Referentiefactuur Btw-%

30.01.2020 1325904 21,00

Netto 114,88

Od hill bi d lende betal

nderstaan versc za j e vog verrekend worden.

GI-aantal Fout aantal

1

0

BTW 21,00%

Totaal

Fout aantal Natura Fact.IK

0 114,88

BTW 24,12

139,00

ing

Ik-verschil

114,88

Bruto 139,00

Totaal

114,88

EUR

EUR

Media Markt Arnhem B.V. 6811 AG ARNHEM KVK-nummer: 9155338 Register gerecht: Centraal Gelderland

Pag

Bank:

Banknaam ING BANK N V

IBAN BIC

NL16INGB0652120644 INGBNL2A

Directie: Arnold Sporrel, Michael Söhlke